{
    "full_name": "Joost Delsman",
    "email": "joost.delsman@deltares.nl",
    "github_username": "jdelsman",
    "project_name": "Name of your science project",
    "project_slug": "{{ cookiecutter.project_name.lower().replace(' ', '-') }}",
    "project_short_description": "A short description of your project",
    "release_date": "{% now 'local' %}",
    "version": "0.1.0",
    "_extensions": ["jinja2_time.TimeExtension"]
}
